{
    "checkUser": {
        "username": "admin",
        "password": "admin"
    },
    "product_category": {
        "clothes": [
            "shirt",
            "tshirt"
        ],
        "mobile": [
            "nokia",
            "realme"
        ]
    },

    "product_list" :  [
                    {"productName":"Flower Tshirt","size":"S","price":"1000","stock":"2","brand":"Arrow","productType":"tshirt","category":"clothes","item_latest":""},
                    {"productName":"Printed Tshirt","size":"M","price":"1200","stock":"3","brand":"Polo","productType":"tshirt","category":"clothes","item_latest":""},
                    {"productName":"Polo Tshirt","size":"L","price":"1500","stock":"5","brand":"Spunk","productType":"tshirt","category":"clothes","item_latest":"added"},
                    {"productName":"Blue Shirt","size":"S","price":"500","stock":"2","brand":"Arrow","productType":"shirt","category":"clothes","item_latest":""},
                    {"productName":"Denim shirt","size":"M","price":"600","stock":"15","brand":"Polo","productType":"shirt","category":"clothes","item_latest":"upaded"},
                    {"productName":"Black Shirt","size":"L","price":"70","stock":"10","brand":"Spunk","productType":"shirt","category":"clothes" ,"item_latest":"added"},
                    {"productName":"N5","price":"7000","stock":"2","productType":"nokia","category":"mobile","item_latest":""},
                    {"productName":"N6","price":"8000","stock":"5","productType":"nokia","category":"mobile","item_latest":""},
                    {"productName":"N7","price":"10000","stock":"10","productType":"nokia","category":"mobile","item_latest":"added"},
                    {"productName":"Reame 2","price":"10000","stock":"10","productType":"realme","category":"mobile","item_latest":""},
                    {"productName":"Realme 2 Pro","price":"15000","stock":"5","productType":"realme","category":"mobile","item_latest":"updated"},
                    {"productName":"Realme xPro","price":"20000","stock":"3","productType":"realme","category":"mobile","item_latest":""}

        ]

}
